           +---------------------------------------+
           |       .....                           |
 blue      +-+     .   .                           |
 +---------+N|     . SONOFF BASIC                +-+   blue
+----------+L|     .   .                         |N+-----------+
 brown     +-+     .....       +---+   +---+     |L+----------+
 (black)   |                   |BTN|   |LED|     +-+   brown
           |                   +---+   +---+       |
           +---------------------------------------+



      GPIO00 | BUTTON
      GPIO12 | RELAY
      GPIO13 | LED1
      GPIO14 | on pinheader
